…
### Cleaning data

    ## Warning: Unknown levels in `f`: 1, 2, 3, 4

### Cleaned data

    ## # A tibble: 112 x 3
    ##    distance_km arrival mode_of_transport
    ##    <chr>         <dbl> <fct>            
    ##  1 1.1               5 Walking          
    ##  2 5.1              20 Transit          
    ##  3 20               50 Driving          
    ##  4 7.4               0 Transit          
    ##  5 1                 0 Walking          
    ##  6 12.4              2 Cycling          
    ##  7 12               15 Driving          
    ##  8 10                5 Transit          
    ##  9 15               90 Driving          
    ## 10 10                5 Transit          
    ## # ... with 102 more rows
…
